The Ultimate Playlist – STA 9750 Submission Material
…
clean_artist_string <- function(x) {
  x |>
    str_replace_all("\\['", "") |>
    str_replace_all("'\\]", "") |>
    str_replace_all("[ ]?'", "") |>
    str_replace_all("[ ]*,[ ]*", ",")
}

songs_df |>
  separate_longer_delim(artists, ",") |>
  mutate(artist = clean_artist_string(artists)) |>
  select(-artists)

# A tibble: 226,813 × 19
   id      name  duration_ms release_date  year acousticness danceability energy
   <chr>   <chr>       <dbl> <chr>        <dbl>        <dbl>        <dbl>  <dbl>
 1 6KbQ3u… Sing…      158648 1928          1928        0.995        0.708 0.195 
 2 6KuQTI… Fant…      282133 1928          1928        0.994        0.379 0.0135
 3 6KuQTI… Fant…      282133 1928          1928        0.994        0.379 0.0135
 4 6L63VW… Chap…      104300 1928          1928        0.604        0.749 0.22  
 5 6M94Fk… Beba…      180760 9/25/28       1928        0.995        0.781 0.13  
 6 6N6tiF… Polo…      687733 1928          1928        0.99         0.21  0.204 
 7 6N6tiF… Polo…      687733 1928          1928        0.99         0.21  0.204 
 8 6NxAf7… Sche…      352600 1928          1928        0.995        0.424 0.12  
 9 6NxAf7… Sche…      352600 1928          1928        0.995        0.424 0.12  
10 6O0puP… Vals…      136627 1928          1928        0.956        0.444 0.197 
# ℹ 226,803 more rows
# ℹ 11 more variables: instrumentalness <dbl>, liveness <dbl>, loudness <dbl>,
#   speechiness <dbl>, tempo <dbl>, valence <dbl>, mode <dbl>, key <dbl>,
#   popularity <dbl>, explicit <dbl>, artist <chr>
…
